{
  "dates": [
    {
      "last_update": "18.08.2022 15: 33: 03",
      "week_day": "Freitag",
      "date": 20220819,
      "results": [
        {
          "class": "AV2c",
          "hour": "2",
          "time": "08: 30-09: 15",
          "room": "86",
          "info": "in Mitbetreuung"
        },
        {
          "class": "AV2c",
          "hour": "3",
          "time": "09: 30-10: 15",
          "room": "H2.1 (86)",
          "info": "in Mitbetreuung"
        },
        {
          "class": "BO1a",
          "hour": "1 - 2",
          "time": "07: 45-09: 15",
          "room": "40",
          "info": "Unterrichtsbeginn: 9.30 Uhr - Entfall"
        },
        {
          "class": "BO2a",
          "hour": "5 - 6",
          "time": "11: 30-13: 00",
          "room": "82",
          "info": "Entfall"
        },
        {
          "class": "BO2a",
          "hour": "7",
          "time": "13: 45-14: 30",
          "room": "82",
          "info": "Entfall"
        },
        {
          "class": "IT_k",
          "hour": "5 - 6",
          "time": "11: 30-13: 00",
          "room": "215",
          "info": "mit Arbeitsauftrag, in Mitbetreuung durch Hei"
        },
        {
          "class": "IT_k",
          "hour": "7",
          "time": "13: 45-14: 30",
          "room": "215",
          "info": "mit Arbeitsauftrag, in Mitbetreuung durch Hei"
        },
        {
          "class": "IT_k",
          "hour": "8",
          "time": "14: 30-15: 15",
          "room": "215",
          "info": "Entfall"
        },
        {
          "class": "IT_o",
          "hour": "1 - 4",
          "time": "07: 45-11: 00",
          "room": "217",
          "info": "Et allein"
        },
        {
          "class": "VM",
          "hour": "5 - 6",
          "time": "11: 30-13: 00",
          "room": "118",
          "info": "mit Arbeitsauftrag vom Team"
        },
        {
          "class": "VM",
          "hour": "7 - 8",
          "time": "13: 45-15: 15",
          "room": "118",
          "info": "Entfall"
        }
      ],
      "next_day": 20220822
    },
    {
      "last_update": "18.08.2022 15: 33: 03",
      "week_day": "Montag",
      "date": 20220822,
      "results": [],
      "next_day": 20220823
    }
  ]
}