{
  "loginBackground": "#2e3264",
  "loginSplashScreenLoader": "#0096FF",
  "loginSplashScreenText": "#ffffff",

  "loginButtonBackground": "#ffffff",
  "loginButtonText": "#000000",

  "loginDisclaimerBackground": "#f7c600",
  "loginDisclaimerText": "#000000",

  "loginDataInputBackground": "#00000000",
  "loginDataInputText": "#d9d9d9",
  "loginDataInputBorder": "#ffffff",
  "loginDataInputIcon": "#ffffff",
  "loginDataInputError": "#ff0000",

  "loginDataSwitchActiveTrack": "#bada55",
  "loginDataSwitchActiveThumb": "#ffffff",
  "loginDataSwitchTrack": "#808080",
  "loginDataSwitchThumb": "#ffffff",

  "navBarBackground": "#2e3264",
  "navBarItemText": "#ffffff",
  "navBarItemIcon": "#ffffff",
  "navBarDivider": "#9E9E9E",

  "accountHeader": "#286a93",
  "accountUserCircle": "#9e9e9e",
  "accountUserText": "#ffffff",

  "background": "#ffffff",

  "tableBorder": "#000000",
  "tableText": "#000000",

  "newsEntryBackground": "#ffffff",
  "newsEntryBackgroundShadow": "#9e9e9e",
  "newsEntryDateColor": "#000000",

  "settingsEntryBackground": "#ffffff",
  "settingsEntryBackgroundShadow": "#9e9e9e",
  "settingsEntryColor": "#000000",
  "settingsEntryActiveColor": "#1c4966",

  "homeTitleColor": "#000000"
}
